<?xml version="1.0" encoding="utf-8"?>
<!-- Generator: Adobe Illustrator 18.0.0, SVG Export Plug-In . SVG Version: 6.00 Build 0)  -->
<!DOCTYPE svg PUBLIC "-//W3C//DTD SVG 1.1//EN" "http://www.w3.org/Graphics/SVG/1.1/DTD/svg11.dtd">
<svg version="1.1" id="Layer_1" xmlns="http://www.w3.org/2000/svg" xmlns:xlink="http://www.w3.org/1999/xlink" x="0px" y="0px"
	 viewBox="0 0 41 41" enable-background="new 0 0 41 41" xml:space="preserve">
<path fill-rule="evenodd" clip-rule="evenodd" d="M30.024,11.784l-1.712,1.711C26.393,11.351,23.606,10,20.5,10
	c-5.526,0-10.046,4.272-10.459,9.692h2.342c0.406-4.126,3.884-7.35,8.117-7.35c2.458,0,4.659,1.09,6.155,2.811l-1.948,1.948
	c-0.36,0.36-0.105,0.976,0.404,0.976H31v-5.889C31,11.679,30.384,11.424,30.024,11.784z M20.5,28.658
	c-2.458,0-4.659-1.091-6.155-2.811l1.948-1.948c0.36-0.36,0.105-0.976-0.404-0.976H10v5.888c0,0.51,0.616,0.765,0.976,0.404
	l1.712-1.712C14.607,29.65,17.394,31,20.5,31c5.526,0,10.045-4.272,10.459-9.692h-2.342C28.211,25.434,24.733,28.658,20.5,28.658z
	 M20.5,0C9.178,0,0,9.178,0,20.5C0,31.822,9.178,41,20.5,41S41,31.822,41,20.5C41,9.178,31.822,0,20.5,0z M20.5,39
	C10.283,39,2,30.717,2,20.5C2,10.283,10.283,2,20.5,2C30.717,2,39,10.283,39,20.5C39,30.717,30.717,39,20.5,39z"/>
</svg>
