<?xml version="1.0" encoding="utf-8"?>
<!-- Generator: Adobe Illustrator 18.0.0, SVG Export Plug-In . SVG Version: 6.00 Build 0)  -->
<!DOCTYPE svg PUBLIC "-//W3C//DTD SVG 1.1//EN" "http://www.w3.org/Graphics/SVG/1.1/DTD/svg11.dtd">
<svg version="1.1" id="Layer_1" xmlns="http://www.w3.org/2000/svg" xmlns:xlink="http://www.w3.org/1999/xlink" x="0px" y="0px"
	 viewBox="0 0 208 119" enable-background="new 0 0 208 119" xml:space="preserve">
<polygon fill-rule="evenodd" clip-rule="evenodd" points="8,117 8,3.6 12.6,8 14,6.7 8.4,1.3 7,0 5.6,1.3 0,6.7 1.4,8 6,3.6 6,117 
	6,117 6,119 208,119 208,117 "/>
</svg>
