{
    "key": "group_57ad8c8a94b85",
    "title": "How To User Management",
    "fields": [
        {
            "key": "field_57ad8cb615c1c",
            "label": "",
            "name": "",
            "type": "message",
            "instructions": "",
            "required": 0,
            "conditional_logic": 0,
            "wrapper": {
                "width": "",
                "class": "",
                "id": ""
            },
            "message": "This is the short version of all steps for managing users. Links to more detailed explanation will be added where relevant.\r\n\r\nThere are 3 premade usergroups, set for managing users specifically. When creating new usergroups it is the best to just clone one of these, depending on which capabilities you want for this usergroup.\r\n\r\n<ol>\r\n<li><code>User<\/code> - can see and edit own profile.<\/li>\r\n<li><code>User Manager<\/code> - can edit other's profiles.<\/li>\r\n<li><code>User Administrator<\/code> - can edit other's profiles and add new users.<\/li>\r\n<\/ol>\r\n\r\n<h3>Hierarchy<\/h3>\r\n\r\nMembers in <strong>User<\/strong> usergroup are regular users who can manage only their own profiles. Their profiles can be managed by members from <strong>User Manager<\/strong> usergroup. However, one <strong>User Manager<\/strong> can not manage the other <strong>User Manager<\/strong>, only own profile. <strong>User Administrator<\/strong> can manage both, <strong>User<\/strong> and <strong>User Manager<\/strong> usergroups, can create new users and assign them to either of these two groups.",
            "new_lines": "wpautop",
            "esc_html": 0
        },
        {
            "key": "field_57adab149b396",
            "label": "",
            "name": "",
            "type": "message",
            "instructions": "",
            "required": 0,
            "conditional_logic": 0,
            "wrapper": {
                "width": "",
                "class": "",
                "id": ""
            },
            "message": "<h1>Preferable Scenario<\/h1>\r\n\r\n<img src=\"\/wp-content\/themes\/house\/admin\/images\/hierarchy.jpg\" \/>",
            "new_lines": "wpautop",
            "esc_html": 0
        },
        {
            "key": "field_57adab42d9d05",
            "label": "",
            "name": "",
            "type": "message",
            "instructions": "",
            "required": 0,
            "conditional_logic": 0,
            "wrapper": {
                "width": "",
                "class": "",
                "id": ""
            },
            "message": "<h3>One User Manager manage just a few Users<\/h3>\r\n\r\nThere are only 3 steps for this scenario:\r\n\r\n<ol>\r\n<li>Clone usergroups (roles)<\/li>\r\n<li>Set permissions for new usergroups (roles)<\/li>\r\n<li>Assign users to new roles<\/li>\r\n<\/ol>\r\n\r\n\r\n<h4>1. Clone usergroups (roles)<\/h4>\r\n\r\n<a href=\"\/wp-admin\/admin.php?page=theme-guidelines-usergroups\" target=\"_blank\">Roles Guide<\/a> | <a href=\"\/wp-admin\/users.php?page=roles\" target=\"_blank\">Manage Roles Here<\/a>\r\n\r\nYou can clone usergroups (roles) as many times as you wish and you can have as many differently names roles with same capabilities as you wish. You can clone <strong>User Manager<\/strong> role and create <strong>User Manager 1<\/strong> and <strong>User Manager 2<\/strong> (name them as you wish). Do the same thing with <strong>User<\/strong> role.  \r\n\r\nWhy would you have multiple usergroups with exactly the same capabilities? You might want to group several people by criteria other than capabilities, e.g. geographical area of living or working, field of speciality, age, gender, to be moderated by specific usergroup etc. \r\n\r\nNow you have 4 new roles:\r\n\r\n<ul>\r\n<li>From <strong>User Manager<\/strong>: <code>User Manager 1<\/code> and <code>User Manager 2<\/code><\/li>\r\n<li>From <strong>User<\/strong>: <code>User 1<\/code> and <code>User 2<\/code><\/li>\r\n<\/ul>\r\n\r\n<h4>2. Set permissions for new usergroups (roles)<\/h4>\r\n\r\n<a href=\"\/wp-admin\/admin.php?page=theme-guidelines-permissions\" target=\"_blank\">Permissions Guide<\/a> | <a href=\"\/wp-admin\/users.php?page=options-users-permissions\" target=\"_blank\">Manage Permissions Here<\/a>\r\n\r\nYou can assign multiple roles to be managed by one or more other roles. In our example new hierarchy would be:\r\n\r\n<ol>\r\n<li><code>User Administrator<\/code> manage all<\/li>\r\n<li><code>User Manager 1<\/code> manage <code>User 1<\/code><\/li>\r\n<li><code>User Manager 2<\/code> manage <code>User 2<\/code><\/li>\r\n<\/ol>\r\n\r\n<h4>3. Assign users to new roles<\/h4>\r\n\r\n<a href=\"\/wp-admin\/admin.php?page=theme-guidelines-usergroups\" target=\"_blank\">Roles Guide<\/a> | <a href=\"\/wp-admin\/users.php\" target=\"_blank\">Manage Users Here<\/a>\r\n\r\nNow you only need to add users to these new roles and all is set.",
            "new_lines": "wpautop",
            "esc_html": 0
        }
    ],
    "location": [
        [
            {
                "param": "options_page",
                "operator": "==",
                "value": "theme-guidelines-user-overview"
            }
        ]
    ],
    "menu_order": 0,
    "position": "normal",
    "style": "default",
    "label_placement": "top",
    "instruction_placement": "label",
    "hide_on_screen": "",
    "active": 1,
    "description": "",
    "modified": 1471332889
}