{
    "key": "group_57e10bd6c69da",
    "title": "Legal fields",
    "fields": [
        {
            "key": "field_57e10be6fac62",
            "label": "Legal Pages Content",
            "name": "legal_pages_content",
            "type": "flexible_content",
            "instructions": "",
            "required": 0,
            "conditional_logic": 0,
            "wrapper": {
                "width": "",
                "class": "",
                "id": ""
            },
            "button_label": "Add Content",
            "min": "",
            "max": "",
            "layouts": [
                {
                    "key": "57e10c022a541",
                    "name": "small_heading",
                    "label": "Small Heading",
                    "display": "block",
                    "sub_fields": [
                        {
                            "key": "field_57e10c16fac63",
                            "label": "Heading",
                            "name": "heading",
                            "type": "text",
                            "instructions": "",
                            "required": "",
                            "conditional_logic": "",
                            "wrapper": {
                                "width": "",
                                "class": "",
                                "id": ""
                            },
                            "default_value": "",
                            "placeholder": "",
                            "prepend": "",
                            "append": "",
                            "maxlength": ""
                        }
                    ],
                    "min": "",
                    "max": ""
                },
                {
                    "key": "57e10c1dfac64",
                    "name": "regular_content",
                    "label": "Regular Content",
                    "display": "block",
                    "sub_fields": [
                        {
                            "key": "field_57e10c42fac65",
                            "label": "Content",
                            "name": "content",
                            "type": "textarea",
                            "instructions": "New empty line will behave as new paragraph.",
                            "required": 0,
                            "conditional_logic": 0,
                            "wrapper": {
                                "width": "",
                                "class": "",
                                "id": ""
                            },
                            "default_value": "",
                            "placeholder": "",
                            "maxlength": "",
                            "rows": 8,
                            "new_lines": "wpautop"
                        }
                    ],
                    "min": "",
                    "max": ""
                },
                {
                    "key": "57e11179fac66",
                    "name": "list",
                    "label": "List",
                    "display": "block",
                    "sub_fields": [
                        {
                            "key": "field_57e1120b9bb98",
                            "label": "List type",
                            "name": "list_type",
                            "type": "select",
                            "instructions": "Select what will appear before each list item.",
                            "required": 0,
                            "conditional_logic": 0,
                            "wrapper": {
                                "width": "20",
                                "class": "",
                                "id": ""
                            },
                            "choices": {
                                "ul": "Bullets",
                                "ol": "Numbers"
                            },
                            "default_value": [],
                            "allow_null": 0,
                            "multiple": 0,
                            "ui": 0,
                            "ajax": 0,
                            "return_format": "value",
                            "placeholder": ""
                        },
                        {
                            "key": "field_57e112199bb99",
                            "label": "List items",
                            "name": "list_items",
                            "type": "repeater",
                            "instructions": "",
                            "required": 0,
                            "conditional_logic": 0,
                            "wrapper": {
                                "width": "80",
                                "class": "",
                                "id": ""
                            },
                            "collapsed": "",
                            "min": 1,
                            "max": "",
                            "layout": "block",
                            "button_label": "Add Item",
                            "sub_fields": [
                                {
                                    "key": "field_57e112199bb9a",
                                    "label": "Item",
                                    "name": "item",
                                    "type": "textarea",
                                    "instructions": "",
                                    "required": 0,
                                    "conditional_logic": 0,
                                    "wrapper": {
                                        "width": "",
                                        "class": "",
                                        "id": ""
                                    },
                                    "default_value": "",
                                    "placeholder": "",
                                    "maxlength": "",
                                    "rows": 2,
                                    "new_lines": ""
                                }
                            ]
                        }
                    ],
                    "min": "",
                    "max": ""
                }
            ]
        }
    ],
    "location": [
        [
            {
                "param": "page_template",
                "operator": "==",
                "value": "templates\/template-legals.php"
            }
        ]
    ],
    "menu_order": 1,
    "position": "acf_after_title",
    "style": "default",
    "label_placement": "top",
    "instruction_placement": "label",
    "hide_on_screen": [
        "the_content"
    ],
    "active": 1,
    "description": "",
    "modified": 1474370855
}