<?xml version="1.0" encoding="utf-8"?>
<!-- Generator: Adobe Illustrator 18.0.0, SVG Export Plug-In . SVG Version: 6.00 Build 0)  -->
<!DOCTYPE svg PUBLIC "-//W3C//DTD SVG 1.1//EN" "http://www.w3.org/Graphics/SVG/1.1/DTD/svg11.dtd">
<svg version="1.1" id="Layer_1" xmlns="http://www.w3.org/2000/svg" xmlns:xlink="http://www.w3.org/1999/xlink" x="0px" y="0px"
	 viewBox="0 0 40 48" enable-background="new 0 0 40 48" xml:space="preserve">
<g>
	<defs>
		<rect id="SVGID_1_" width="40" height="48"/>
	</defs>
	<clipPath id="SVGID_2_">
		<use xlink:href="#SVGID_1_"  overflow="visible"/>
	</clipPath>
	<g clip-path="url(#SVGID_2_)">
		<defs>
			<rect id="SVGID_3_" width="40" height="48"/>
		</defs>
		<clipPath id="SVGID_4_">
			<use xlink:href="#SVGID_3_"  overflow="visible"/>
		</clipPath>
		<path clip-path="url(#SVGID_4_)" fill="#4F446C" d="M39.7,11.3l-11-11C28.5,0.1,28.3,0,28,0H3C1.3,0,0,1.3,0,3v42c0,1.7,1.3,3,3,3
			h34c1.7,0,3-1.3,3-3V12C40,11.7,39.9,11.5,39.7,11.3 M38,45c0,0.6-0.4,1-1,1H3c-0.6,0-1-0.4-1-1V3c0-0.6,0.4-1,1-1h24v7.6
			c0,1.9,1.5,3.4,3.4,3.4H38V45z"/>
		<path clip-path="url(#SVGID_4_)" fill="#CCC4E1" d="M10.5,18H6v11h2v-4h2.5c1.9,0,3.5-1.6,3.5-3.5S12.4,18,10.5,18 M10.6,23H8v-3
			h2.6c0.8,0,1.5,0.7,1.5,1.5S11.4,23,10.6,23"/>
		<path clip-path="url(#SVGID_4_)" fill="#CCC4E1" d="M19.5,18H18h-2v11h2h1.5c3,0,5.5-2.5,5.5-5.5S22.5,18,19.5,18 M19.7,27H18v-7
			h1.7c2.1,0,3.4,1.8,3.4,3.5S21.8,27,19.7,27"/>
		<polygon clip-path="url(#SVGID_4_)" fill="#CCC4E1" points="34,20 34,18 27,18 27,29 29,29 29,24 33,24 33,22 29,22 29,20 		"/>
	</g>
</g>
</svg>
