<?xml version="1.0" encoding="utf-8"?>
<!-- Generator: Adobe Illustrator 16.0.0, SVG Export Plug-In . SVG Version: 6.00 Build 0)  -->
<!DOCTYPE svg PUBLIC "-//W3C//DTD SVG 1.1//EN" "http://www.w3.org/Graphics/SVG/1.1/DTD/svg11.dtd">
<svg version="1.1" id="Layer_1" xmlns="http://www.w3.org/2000/svg" xmlns:xlink="http://www.w3.org/1999/xlink" x="0px" y="0px"
	 width="157px" height="43px" viewBox="0 0 157 43" enable-background="new 0 0 157 43" xml:space="preserve">
<g>
	<g>
		<path fill="#4F446C" d="M17,36c-3.3-1.4-5.5-2.1-8-4v9c0,1,1,2,2,2h24.2c1,0,1.8-0.8,1.8-1.8v-1.7C31.7,40.7,24.2,39.2,17,36z
			 M38.3,17v1c4.2,4.1,6.1,8.5,4.6,11.9c-0.9,2.1-3.1,3.5-5.9,4.2V10h-8c-1,0-2-1-2-2V2c0-0.1,0.9,0,1,0v5c0,1,0.7,2,1.7,2L37,9
			l-9-9H11c-1,0-2,1-2,2v24c-5.2-4.4-8.2-10.2-6.6-14C3.2,10.2,5,8.8,7.3,8.1V7.5C4.1,8.3,1.7,10,0.6,12.5
			c-2.9,6.6,4.6,16.4,16.7,21.7c12.1,5.4,24.2,4.3,27.1-2.3C46.3,27.6,43.7,21.9,38.3,17z M12,7.3C12,7.2,12.2,7,12.3,7h2.7V4.3
			c0-0.2,0.1-0.3,0.3-0.3h1.3C16.9,4,17,4.1,17,4.3V7h2.7C19.9,7,20,7.2,20,7.3v1.3C20,8.8,19.9,9,19.7,9H17v2.7
			c0,0.2-0.1,0.3-0.3,0.3h-1.3c-0.2,0-0.3-0.1-0.3-0.3V9h-2.7C12.2,9,12,8.8,12,8.7V7.3z M12,16.5c0-0.3,0.2-0.5,0.4-0.5h8.3
			c0.2,0,0.4,0.2,0.4,0.5v1c0,0.3-0.2,0.5-0.4,0.5h-8.3c-0.2,0-0.4-0.2-0.4-0.5V16.5z M29,30.5c0,0.3-0.2,0.5-0.4,0.5H16.8
			c-1-0.6-1.9-1.3-2.8-2h14.7c0.2,0,0.4,0.2,0.4,0.5V30.5z M34,26.5c0,0.3-0.2,0.5-0.4,0.5H12.4c-0.2,0-0.4-0.2-0.4-0.5v-1
			c0-0.3,0.2-0.5,0.4-0.5h21.3c0.2,0,0.4,0.2,0.4,0.5V26.5z M34,22.5c0,0.3-0.2,0.5-0.4,0.5H12.4c-0.2,0-0.4-0.2-0.4-0.5v-1
			c0-0.3,0.2-0.5,0.4-0.5h21.3c0.2,0,0.4,0.2,0.4,0.5V22.5z M68.4,10.3H55.6c-0.3,0-0.6,0.3-0.6,0.6v21.2c0,0.3,0.2,0.6,0.6,0.6
			h12.8c0.3,0,0.6-0.3,0.6-0.6v-3.5c0-0.3-0.2-0.6-0.6-0.6h-8.5v-4.3h7c0.3,0,0.6-0.3,0.6-0.6v-3.5c0-0.3-0.3-0.6-0.6-0.6h-7v-4h8.5
			c0.3,0,0.6-0.3,0.6-0.6v-3.5C69,10.6,68.7,10.3,68.4,10.3z M85,10.3H71.9c-0.3,0-0.6,0.3-0.6,0.6v3.5c0,0.3,0.3,0.6,0.6,0.6h6.7
			v0.1l-8.2,16.4v0.6c0,0.3,0.3,0.6,0.6,0.6h13.4c0.3,0,0.6-0.3,0.6-0.6v-3.5c0-0.3-0.2-0.6-0.6-0.6h-6.7v-0.1l7.9-16.6v-0.4
			C85.6,10.6,85.3,10.3,85,10.3z M102.4,10.3h-7.5c-0.3,0-0.6,0.3-0.6,0.6v21.2c0,0.3,0.2,0.6,0.6,0.6h7.5c6,0,10.8-5,10.8-11.2
			C113.2,15.3,108.4,10.3,102.4,10.3z M102.1,28h-3V15h3c3.5,0,6,2.8,6,6.5C108.1,25.1,105.6,28,102.1,28z M125.7,10
			c-6.2,0-11.1,5.1-11.1,11.5c0,6.4,4.9,11.5,11.1,11.5s11.1-5.1,11.1-11.5C136.8,15.1,131.9,10,125.7,10z M125.7,27.9
			c-3.4,0-6.1-2.9-6.1-6.4c0-3.5,2.8-6.4,6.1-6.4c3.4,0,6.2,2.9,6.2,6.4C131.9,25,129.1,27.9,125.7,27.9z M154.5,26.4
			c-0.2-0.2-0.6-0.2-0.8,0c-1.1,1-2.7,1.5-4.1,1.5c-3.5,0-6.1-2.9-6.1-6.5c0-3.6,2.6-6.6,6-6.6c1.5,0,3,0.6,4.2,1.6
			c0.2,0.2,0.6,0.2,0.8,0l2.4-2.6c0.2-0.3,0.2-0.6,0-0.9c-2.1-2-4.4-3-7.5-3c-6.2,0-11.1,5.1-11.1,11.5c0,6.4,5,11.5,11.1,11.5
			c2.7,0,5.4-1,7.5-3.1c0.2-0.2,0.2-0.6,0-0.9L154.5,26.4z"/>
	</g>
</g>
</svg>
